"ID";"Bezeichner";"Gehäuse";"Stückzahl";"Bezeichnung";"Anbieter und Referenz";
1;"R13,R12,R11,R10,R14";"R_0805_2012Metric_Pad1.15x1.40mm_HandSolder";5;"R100K";;;
2;"C13,C10,C12,C11";"C_1206_3216Metric_Pad1.39x1.80mm_HandSolder";4;"10uF";;;
3;"FID4,FID3,FID2,FID1";"Fiducial_0.75mm_Dia_1.5mm_Outer";4;"Fiducial";;;
4;"J5";"USB_C_Receptacle_HRO_TYPE-C-31-M-12";1;"USB_C_Receptacle_USB2.0";;;
5;"J6";"PinHeader_1x02_P2.54mm_Vertical";1;"Conn_01x02_Male";;;
6;"D15,D14";"D_SOD-323";2;"Z3.6V";;;
7;"J4,J2";"JST_PH_B2B-PH-K_1x02_P2.00mm_Vertical";2;"Conn_01x02_Male";;;
8;"RN1";"R_Array_Convex_4x0603";1;"10K";;;
9;"C8,C7,C6,C5,C4,C3,C2,C9";"C_0805_2012Metric_Pad1.15x1.40mm_HandSolder";8;"100nF";;;
10;"Q4,Q3";"SOT-23";2;"DMG3415U-7";;;
11;"D13";"D_SOD-123";1;"SK22WA";;;
12;"J1";"PinHeader_1x03_P2.54mm_Vertical";1;"Conn_01x03_Female";;;
13;"SW1,SW3,SW4,SW2";"SW_Cherry_MX_1.00u_PCB";4;"SW_Push";;;
14;"U5";"SOT-23-5_HandSoldering";1;"AP2112K-3.3";;;
15;"U4";"SOT-23-5_HandSoldering";1;"MCP73831-2-OT";;;
16;"U2";"PinHeader_2x04_P2.54mm_Vertical";1;"NRF24L01_Breakout";;;
17;"R9,R17,R16";"R_0805_2012Metric_Pad1.15x1.40mm_HandSolder";3;"R5K1";;;
18;"R8,R7,R6,R5";"R_0805_2012Metric_Pad1.15x1.40mm_HandSolder";4;"R1K";;;
19;"R4,R3,R2,R1";"R_0805_2012Metric_Pad1.15x1.40mm_HandSolder";4;"R150";;;
20;"Q2,Q1";"SOT-23";2;"BSS138";;;
21;"J3";"PinHeader_1x05_P2.54mm_Vertical";1;"Conn_01x05_Female";;;
22;"D12,D11,D10,D9";"LED_D3.0mm";4;"LED";;;
23;"D8,D7,D6,D5,D4,D3,D2,D1";"LED_RGB_5050-6";8;"APA102";;;
24;"C1";"C_0805_2012Metric_Pad1.15x1.40mm_HandSolder";1;"1uF";;;
25;"U1";"TQFP-32_7x7mm_P0.8mm";1;"ATSAMD21E18A-AUT";;;
26;"R15";"R_0805_2012Metric_Pad1.15x1.40mm_HandSolder";1;"R1M";;;
27;"SW6";"SW_SPST_CK_KXT3";1;"SW_Push";;;
28;"SW5";"SW_SPDT_CK-JS102011SAQN";1;"SW_SPDT";;;
29;"TPD1,TPC1";"TestPoint_Pad_D1.5mm";2;"TestPoint";;;
30;"REF**";"OSHW-Symbol_6.7x6mm_SilkScreen";1;"OSHW-Symbol_6.7x6mm_SilkScreen";;;
31;"U6";"LGA-16_3x3mm_P0.5mm_LayoutBorder3x5y";1;"LIS3DH";;;
32;"REF**,REF**";"MountingHole_2.2mm_M2_Pad_Via";2;"MountingHole_2.2mm_M2_Pad_Via";;;
