G04 #@! TF.GenerationSoftware,KiCad,Pcbnew,(5.1.5)-3*
G04 #@! TF.CreationDate,2020-01-08T11:27:56+01:00*
G04 #@! TF.ProjectId,telepoll,74656c65-706f-46c6-9c2e-6b696361645f,rev?*
G04 #@! TF.SameCoordinates,Original*
G04 #@! TF.FileFunction,Paste,Top*
G04 #@! TF.FilePolarity,Positive*
%FSLAX46Y46*%
G04 Gerber Fmt 4.6, Leading zero omitted, Abs format (unit mm)*
G04 Created by KiCad (PCBNEW (5.1.5)-3) date 2020-01-08 11:27:56*
%MOMM*%
%LPD*%
G04 APERTURE LIST*
%ADD10R,1.100000X2.000000*%
%ADD11R,2.000000X1.100000*%
%ADD12C,0.100000*%
G04 APERTURE END LIST*
D10*
X18874000Y-48146000D03*
X20574000Y-48146000D03*
X22274000Y-48146000D03*
X22274000Y-52946000D03*
X20574000Y-52946000D03*
X18874000Y-52946000D03*
D11*
X28334000Y-62406000D03*
X28334000Y-60706000D03*
X28334000Y-59006000D03*
X33134000Y-59006000D03*
X33134000Y-60706000D03*
X33134000Y-62406000D03*
X48654000Y-62406000D03*
X48654000Y-60706000D03*
X48654000Y-59006000D03*
X53454000Y-59006000D03*
X53454000Y-60706000D03*
X53454000Y-62406000D03*
D10*
X62914000Y-52946000D03*
X61214000Y-52946000D03*
X59514000Y-52946000D03*
X59514000Y-48146000D03*
X61214000Y-48146000D03*
X62914000Y-48146000D03*
X62914000Y-32626000D03*
X61214000Y-32626000D03*
X59514000Y-32626000D03*
X59514000Y-27826000D03*
X61214000Y-27826000D03*
X62914000Y-27826000D03*
D11*
X53454000Y-18366000D03*
X53454000Y-20066000D03*
X53454000Y-21766000D03*
X48654000Y-21766000D03*
X48654000Y-20066000D03*
X48654000Y-18366000D03*
X33134000Y-18366000D03*
X33134000Y-20066000D03*
X33134000Y-21766000D03*
X28334000Y-21766000D03*
X28334000Y-20066000D03*
X28334000Y-18366000D03*
D10*
X18874000Y-27826000D03*
X20574000Y-27826000D03*
X22274000Y-27826000D03*
X22274000Y-32626000D03*
X20574000Y-32626000D03*
X18874000Y-32626000D03*
D12*
G36*
X42885505Y-38671204D02*
G01*
X42909773Y-38674804D01*
X42933572Y-38680765D01*
X42956671Y-38689030D01*
X42978850Y-38699520D01*
X42999893Y-38712132D01*
X43019599Y-38726747D01*
X43037777Y-38743223D01*
X43054253Y-38761401D01*
X43068868Y-38781107D01*
X43081480Y-38802150D01*
X43091970Y-38824329D01*
X43100235Y-38847428D01*
X43106196Y-38871227D01*
X43109796Y-38895495D01*
X43111000Y-38919999D01*
X43111000Y-39820001D01*
X43109796Y-39844505D01*
X43106196Y-39868773D01*
X43100235Y-39892572D01*
X43091970Y-39915671D01*
X43081480Y-39937850D01*
X43068868Y-39958893D01*
X43054253Y-39978599D01*
X43037777Y-39996777D01*
X43019599Y-40013253D01*
X42999893Y-40027868D01*
X42978850Y-40040480D01*
X42956671Y-40050970D01*
X42933572Y-40059235D01*
X42909773Y-40065196D01*
X42885505Y-40068796D01*
X42861001Y-40070000D01*
X42210999Y-40070000D01*
X42186495Y-40068796D01*
X42162227Y-40065196D01*
X42138428Y-40059235D01*
X42115329Y-40050970D01*
X42093150Y-40040480D01*
X42072107Y-40027868D01*
X42052401Y-40013253D01*
X42034223Y-39996777D01*
X42017747Y-39978599D01*
X42003132Y-39958893D01*
X41990520Y-39937850D01*
X41980030Y-39915671D01*
X41971765Y-39892572D01*
X41965804Y-39868773D01*
X41962204Y-39844505D01*
X41961000Y-39820001D01*
X41961000Y-38919999D01*
X41962204Y-38895495D01*
X41965804Y-38871227D01*
X41971765Y-38847428D01*
X41980030Y-38824329D01*
X41990520Y-38802150D01*
X42003132Y-38781107D01*
X42017747Y-38761401D01*
X42034223Y-38743223D01*
X42052401Y-38726747D01*
X42072107Y-38712132D01*
X42093150Y-38699520D01*
X42115329Y-38689030D01*
X42138428Y-38680765D01*
X42162227Y-38674804D01*
X42186495Y-38671204D01*
X42210999Y-38670000D01*
X42861001Y-38670000D01*
X42885505Y-38671204D01*
G37*
G36*
X44935505Y-38671204D02*
G01*
X44959773Y-38674804D01*
X44983572Y-38680765D01*
X45006671Y-38689030D01*
X45028850Y-38699520D01*
X45049893Y-38712132D01*
X45069599Y-38726747D01*
X45087777Y-38743223D01*
X45104253Y-38761401D01*
X45118868Y-38781107D01*
X45131480Y-38802150D01*
X45141970Y-38824329D01*
X45150235Y-38847428D01*
X45156196Y-38871227D01*
X45159796Y-38895495D01*
X45161000Y-38919999D01*
X45161000Y-39820001D01*
X45159796Y-39844505D01*
X45156196Y-39868773D01*
X45150235Y-39892572D01*
X45141970Y-39915671D01*
X45131480Y-39937850D01*
X45118868Y-39958893D01*
X45104253Y-39978599D01*
X45087777Y-39996777D01*
X45069599Y-40013253D01*
X45049893Y-40027868D01*
X45028850Y-40040480D01*
X45006671Y-40050970D01*
X44983572Y-40059235D01*
X44959773Y-40065196D01*
X44935505Y-40068796D01*
X44911001Y-40070000D01*
X44260999Y-40070000D01*
X44236495Y-40068796D01*
X44212227Y-40065196D01*
X44188428Y-40059235D01*
X44165329Y-40050970D01*
X44143150Y-40040480D01*
X44122107Y-40027868D01*
X44102401Y-40013253D01*
X44084223Y-39996777D01*
X44067747Y-39978599D01*
X44053132Y-39958893D01*
X44040520Y-39937850D01*
X44030030Y-39915671D01*
X44021765Y-39892572D01*
X44015804Y-39868773D01*
X44012204Y-39844505D01*
X44011000Y-39820001D01*
X44011000Y-38919999D01*
X44012204Y-38895495D01*
X44015804Y-38871227D01*
X44021765Y-38847428D01*
X44030030Y-38824329D01*
X44040520Y-38802150D01*
X44053132Y-38781107D01*
X44067747Y-38761401D01*
X44084223Y-38743223D01*
X44102401Y-38726747D01*
X44122107Y-38712132D01*
X44143150Y-38699520D01*
X44165329Y-38689030D01*
X44188428Y-38680765D01*
X44212227Y-38674804D01*
X44236495Y-38671204D01*
X44260999Y-38670000D01*
X44911001Y-38670000D01*
X44935505Y-38671204D01*
G37*
G36*
X42885505Y-40703204D02*
G01*
X42909773Y-40706804D01*
X42933572Y-40712765D01*
X42956671Y-40721030D01*
X42978850Y-40731520D01*
X42999893Y-40744132D01*
X43019599Y-40758747D01*
X43037777Y-40775223D01*
X43054253Y-40793401D01*
X43068868Y-40813107D01*
X43081480Y-40834150D01*
X43091970Y-40856329D01*
X43100235Y-40879428D01*
X43106196Y-40903227D01*
X43109796Y-40927495D01*
X43111000Y-40951999D01*
X43111000Y-41852001D01*
X43109796Y-41876505D01*
X43106196Y-41900773D01*
X43100235Y-41924572D01*
X43091970Y-41947671D01*
X43081480Y-41969850D01*
X43068868Y-41990893D01*
X43054253Y-42010599D01*
X43037777Y-42028777D01*
X43019599Y-42045253D01*
X42999893Y-42059868D01*
X42978850Y-42072480D01*
X42956671Y-42082970D01*
X42933572Y-42091235D01*
X42909773Y-42097196D01*
X42885505Y-42100796D01*
X42861001Y-42102000D01*
X42210999Y-42102000D01*
X42186495Y-42100796D01*
X42162227Y-42097196D01*
X42138428Y-42091235D01*
X42115329Y-42082970D01*
X42093150Y-42072480D01*
X42072107Y-42059868D01*
X42052401Y-42045253D01*
X42034223Y-42028777D01*
X42017747Y-42010599D01*
X42003132Y-41990893D01*
X41990520Y-41969850D01*
X41980030Y-41947671D01*
X41971765Y-41924572D01*
X41965804Y-41900773D01*
X41962204Y-41876505D01*
X41961000Y-41852001D01*
X41961000Y-40951999D01*
X41962204Y-40927495D01*
X41965804Y-40903227D01*
X41971765Y-40879428D01*
X41980030Y-40856329D01*
X41990520Y-40834150D01*
X42003132Y-40813107D01*
X42017747Y-40793401D01*
X42034223Y-40775223D01*
X42052401Y-40758747D01*
X42072107Y-40744132D01*
X42093150Y-40731520D01*
X42115329Y-40721030D01*
X42138428Y-40712765D01*
X42162227Y-40706804D01*
X42186495Y-40703204D01*
X42210999Y-40702000D01*
X42861001Y-40702000D01*
X42885505Y-40703204D01*
G37*
G36*
X44935505Y-40703204D02*
G01*
X44959773Y-40706804D01*
X44983572Y-40712765D01*
X45006671Y-40721030D01*
X45028850Y-40731520D01*
X45049893Y-40744132D01*
X45069599Y-40758747D01*
X45087777Y-40775223D01*
X45104253Y-40793401D01*
X45118868Y-40813107D01*
X45131480Y-40834150D01*
X45141970Y-40856329D01*
X45150235Y-40879428D01*
X45156196Y-40903227D01*
X45159796Y-40927495D01*
X45161000Y-40951999D01*
X45161000Y-41852001D01*
X45159796Y-41876505D01*
X45156196Y-41900773D01*
X45150235Y-41924572D01*
X45141970Y-41947671D01*
X45131480Y-41969850D01*
X45118868Y-41990893D01*
X45104253Y-42010599D01*
X45087777Y-42028777D01*
X45069599Y-42045253D01*
X45049893Y-42059868D01*
X45028850Y-42072480D01*
X45006671Y-42082970D01*
X44983572Y-42091235D01*
X44959773Y-42097196D01*
X44935505Y-42100796D01*
X44911001Y-42102000D01*
X44260999Y-42102000D01*
X44236495Y-42100796D01*
X44212227Y-42097196D01*
X44188428Y-42091235D01*
X44165329Y-42082970D01*
X44143150Y-42072480D01*
X44122107Y-42059868D01*
X44102401Y-42045253D01*
X44084223Y-42028777D01*
X44067747Y-42010599D01*
X44053132Y-41990893D01*
X44040520Y-41969850D01*
X44030030Y-41947671D01*
X44021765Y-41924572D01*
X44015804Y-41900773D01*
X44012204Y-41876505D01*
X44011000Y-41852001D01*
X44011000Y-40951999D01*
X44012204Y-40927495D01*
X44015804Y-40903227D01*
X44021765Y-40879428D01*
X44030030Y-40856329D01*
X44040520Y-40834150D01*
X44053132Y-40813107D01*
X44067747Y-40793401D01*
X44084223Y-40775223D01*
X44102401Y-40758747D01*
X44122107Y-40744132D01*
X44143150Y-40731520D01*
X44165329Y-40721030D01*
X44188428Y-40712765D01*
X44212227Y-40706804D01*
X44236495Y-40703204D01*
X44260999Y-40702000D01*
X44911001Y-40702000D01*
X44935505Y-40703204D01*
G37*
G36*
X44289505Y-18594204D02*
G01*
X44313773Y-18597804D01*
X44337572Y-18603765D01*
X44360671Y-18612030D01*
X44382850Y-18622520D01*
X44403893Y-18635132D01*
X44423599Y-18649747D01*
X44441777Y-18666223D01*
X44458253Y-18684401D01*
X44472868Y-18704107D01*
X44485480Y-18725150D01*
X44495970Y-18747329D01*
X44504235Y-18770428D01*
X44510196Y-18794227D01*
X44513796Y-18818495D01*
X44515000Y-18842999D01*
X44515000Y-19493001D01*
X44513796Y-19517505D01*
X44510196Y-19541773D01*
X44504235Y-19565572D01*
X44495970Y-19588671D01*
X44485480Y-19610850D01*
X44472868Y-19631893D01*
X44458253Y-19651599D01*
X44441777Y-19669777D01*
X44423599Y-19686253D01*
X44403893Y-19700868D01*
X44382850Y-19713480D01*
X44360671Y-19723970D01*
X44337572Y-19732235D01*
X44313773Y-19738196D01*
X44289505Y-19741796D01*
X44265001Y-19743000D01*
X43364999Y-19743000D01*
X43340495Y-19741796D01*
X43316227Y-19738196D01*
X43292428Y-19732235D01*
X43269329Y-19723970D01*
X43247150Y-19713480D01*
X43226107Y-19700868D01*
X43206401Y-19686253D01*
X43188223Y-19669777D01*
X43171747Y-19651599D01*
X43157132Y-19631893D01*
X43144520Y-19610850D01*
X43134030Y-19588671D01*
X43125765Y-19565572D01*
X43119804Y-19541773D01*
X43116204Y-19517505D01*
X43115000Y-19493001D01*
X43115000Y-18842999D01*
X43116204Y-18818495D01*
X43119804Y-18794227D01*
X43125765Y-18770428D01*
X43134030Y-18747329D01*
X43144520Y-18725150D01*
X43157132Y-18704107D01*
X43171747Y-18684401D01*
X43188223Y-18666223D01*
X43206401Y-18649747D01*
X43226107Y-18635132D01*
X43247150Y-18622520D01*
X43269329Y-18612030D01*
X43292428Y-18603765D01*
X43316227Y-18597804D01*
X43340495Y-18594204D01*
X43364999Y-18593000D01*
X44265001Y-18593000D01*
X44289505Y-18594204D01*
G37*
G36*
X44289505Y-20644204D02*
G01*
X44313773Y-20647804D01*
X44337572Y-20653765D01*
X44360671Y-20662030D01*
X44382850Y-20672520D01*
X44403893Y-20685132D01*
X44423599Y-20699747D01*
X44441777Y-20716223D01*
X44458253Y-20734401D01*
X44472868Y-20754107D01*
X44485480Y-20775150D01*
X44495970Y-20797329D01*
X44504235Y-20820428D01*
X44510196Y-20844227D01*
X44513796Y-20868495D01*
X44515000Y-20892999D01*
X44515000Y-21543001D01*
X44513796Y-21567505D01*
X44510196Y-21591773D01*
X44504235Y-21615572D01*
X44495970Y-21638671D01*
X44485480Y-21660850D01*
X44472868Y-21681893D01*
X44458253Y-21701599D01*
X44441777Y-21719777D01*
X44423599Y-21736253D01*
X44403893Y-21750868D01*
X44382850Y-21763480D01*
X44360671Y-21773970D01*
X44337572Y-21782235D01*
X44313773Y-21788196D01*
X44289505Y-21791796D01*
X44265001Y-21793000D01*
X43364999Y-21793000D01*
X43340495Y-21791796D01*
X43316227Y-21788196D01*
X43292428Y-21782235D01*
X43269329Y-21773970D01*
X43247150Y-21763480D01*
X43226107Y-21750868D01*
X43206401Y-21736253D01*
X43188223Y-21719777D01*
X43171747Y-21701599D01*
X43157132Y-21681893D01*
X43144520Y-21660850D01*
X43134030Y-21638671D01*
X43125765Y-21615572D01*
X43119804Y-21591773D01*
X43116204Y-21567505D01*
X43115000Y-21543001D01*
X43115000Y-20892999D01*
X43116204Y-20868495D01*
X43119804Y-20844227D01*
X43125765Y-20820428D01*
X43134030Y-20797329D01*
X43144520Y-20775150D01*
X43157132Y-20754107D01*
X43171747Y-20734401D01*
X43188223Y-20716223D01*
X43206401Y-20699747D01*
X43226107Y-20685132D01*
X43247150Y-20672520D01*
X43269329Y-20662030D01*
X43292428Y-20653765D01*
X43316227Y-20647804D01*
X43340495Y-20644204D01*
X43364999Y-20643000D01*
X44265001Y-20643000D01*
X44289505Y-20644204D01*
G37*
G36*
X38447505Y-20644204D02*
G01*
X38471773Y-20647804D01*
X38495572Y-20653765D01*
X38518671Y-20662030D01*
X38540850Y-20672520D01*
X38561893Y-20685132D01*
X38581599Y-20699747D01*
X38599777Y-20716223D01*
X38616253Y-20734401D01*
X38630868Y-20754107D01*
X38643480Y-20775150D01*
X38653970Y-20797329D01*
X38662235Y-20820428D01*
X38668196Y-20844227D01*
X38671796Y-20868495D01*
X38673000Y-20892999D01*
X38673000Y-21543001D01*
X38671796Y-21567505D01*
X38668196Y-21591773D01*
X38662235Y-21615572D01*
X38653970Y-21638671D01*
X38643480Y-21660850D01*
X38630868Y-21681893D01*
X38616253Y-21701599D01*
X38599777Y-21719777D01*
X38581599Y-21736253D01*
X38561893Y-21750868D01*
X38540850Y-21763480D01*
X38518671Y-21773970D01*
X38495572Y-21782235D01*
X38471773Y-21788196D01*
X38447505Y-21791796D01*
X38423001Y-21793000D01*
X37522999Y-21793000D01*
X37498495Y-21791796D01*
X37474227Y-21788196D01*
X37450428Y-21782235D01*
X37427329Y-21773970D01*
X37405150Y-21763480D01*
X37384107Y-21750868D01*
X37364401Y-21736253D01*
X37346223Y-21719777D01*
X37329747Y-21701599D01*
X37315132Y-21681893D01*
X37302520Y-21660850D01*
X37292030Y-21638671D01*
X37283765Y-21615572D01*
X37277804Y-21591773D01*
X37274204Y-21567505D01*
X37273000Y-21543001D01*
X37273000Y-20892999D01*
X37274204Y-20868495D01*
X37277804Y-20844227D01*
X37283765Y-20820428D01*
X37292030Y-20797329D01*
X37302520Y-20775150D01*
X37315132Y-20754107D01*
X37329747Y-20734401D01*
X37346223Y-20716223D01*
X37364401Y-20699747D01*
X37384107Y-20685132D01*
X37405150Y-20672520D01*
X37427329Y-20662030D01*
X37450428Y-20653765D01*
X37474227Y-20647804D01*
X37498495Y-20644204D01*
X37522999Y-20643000D01*
X38423001Y-20643000D01*
X38447505Y-20644204D01*
G37*
G36*
X38447505Y-18594204D02*
G01*
X38471773Y-18597804D01*
X38495572Y-18603765D01*
X38518671Y-18612030D01*
X38540850Y-18622520D01*
X38561893Y-18635132D01*
X38581599Y-18649747D01*
X38599777Y-18666223D01*
X38616253Y-18684401D01*
X38630868Y-18704107D01*
X38643480Y-18725150D01*
X38653970Y-18747329D01*
X38662235Y-18770428D01*
X38668196Y-18794227D01*
X38671796Y-18818495D01*
X38673000Y-18842999D01*
X38673000Y-19493001D01*
X38671796Y-19517505D01*
X38668196Y-19541773D01*
X38662235Y-19565572D01*
X38653970Y-19588671D01*
X38643480Y-19610850D01*
X38630868Y-19631893D01*
X38616253Y-19651599D01*
X38599777Y-19669777D01*
X38581599Y-19686253D01*
X38561893Y-19700868D01*
X38540850Y-19713480D01*
X38518671Y-19723970D01*
X38495572Y-19732235D01*
X38471773Y-19738196D01*
X38447505Y-19741796D01*
X38423001Y-19743000D01*
X37522999Y-19743000D01*
X37498495Y-19741796D01*
X37474227Y-19738196D01*
X37450428Y-19732235D01*
X37427329Y-19723970D01*
X37405150Y-19713480D01*
X37384107Y-19700868D01*
X37364401Y-19686253D01*
X37346223Y-19669777D01*
X37329747Y-19651599D01*
X37315132Y-19631893D01*
X37302520Y-19610850D01*
X37292030Y-19588671D01*
X37283765Y-19565572D01*
X37277804Y-19541773D01*
X37274204Y-19517505D01*
X37273000Y-19493001D01*
X37273000Y-18842999D01*
X37274204Y-18818495D01*
X37277804Y-18794227D01*
X37283765Y-18770428D01*
X37292030Y-18747329D01*
X37302520Y-18725150D01*
X37315132Y-18704107D01*
X37329747Y-18684401D01*
X37346223Y-18666223D01*
X37364401Y-18649747D01*
X37384107Y-18635132D01*
X37405150Y-18622520D01*
X37427329Y-18612030D01*
X37450428Y-18603765D01*
X37474227Y-18597804D01*
X37498495Y-18594204D01*
X37522999Y-18593000D01*
X38423001Y-18593000D01*
X38447505Y-18594204D01*
G37*
M02*
